## Interface: 30300 
## Title: SubSpec
## Notes: Store and load profiles for fast ready-ups for bossfights/trash
## Version: 1.0
## Author: Hipnotize
## SavedVariablesPerCharacter: SubSpec

embeds.xml

SubSpec.lua